<?xml version="1.0" encoding="UTF-8"?>
<svg width="32px" height="32px" viewBox="0 0 32 32" version="1.1" xmlns="http://www.w3.org/2000/svg" xmlns:xlink="http://www.w3.org/1999/xlink">
    <title>icon/logo</title>
    <defs>
        <linearGradient x1="50%" y1="100%" x2="50%" y2="0%" id="linearGradient-1">
            <stop stop-color="#070027" stop-opacity="0" offset="0%"></stop>
            <stop stop-color="#170D27" stop-opacity="0.08" offset="1%"></stop>
            <stop stop-color="#3E2C25" stop-opacity="0.27" offset="3%"></stop>
            <stop stop-color="#634A24" stop-opacity="0.44" offset="5%"></stop>
            <stop stop-color="#826323" stop-opacity="0.6" offset="7%"></stop>
            <stop stop-color="#9D7823" stop-opacity="0.72" offset="10%"></stop>
            <stop stop-color="#B28922" stop-opacity="0.83" offset="13%"></stop>
            <stop stop-color="#C29622" stop-opacity="0.9" offset="17%"></stop>
            <stop stop-color="#CE9F21" stop-opacity="0.96" offset="21%"></stop>
            <stop stop-color="#D4A521" stop-opacity="0.99" offset="27%"></stop>
            <stop stop-color="#D6A621" offset="44%"></stop>
        </linearGradient>
        <linearGradient x1="99.9838545%" y1="49.7867596%" x2="7.05055255e-15%" y2="49.7867596%" id="linearGradient-2">
            <stop stop-color="#070027" stop-opacity="0" offset="0%"></stop>
            <stop stop-color="#170D27" stop-opacity="0.08" offset="1%"></stop>
            <stop stop-color="#3E2C25" stop-opacity="0.27" offset="3%"></stop>
            <stop stop-color="#634A24" stop-opacity="0.44" offset="5%"></stop>
            <stop stop-color="#826323" stop-opacity="0.6" offset="7%"></stop>
            <stop stop-color="#9D7823" stop-opacity="0.72" offset="10%"></stop>
            <stop stop-color="#B28922" stop-opacity="0.83" offset="13%"></stop>
            <stop stop-color="#C29622" stop-opacity="0.9" offset="17%"></stop>
            <stop stop-color="#CE9F21" stop-opacity="0.96" offset="21%"></stop>
            <stop stop-color="#D4A521" stop-opacity="0.99" offset="27%"></stop>
            <stop stop-color="#D6A621" offset="44%"></stop>
        </linearGradient>
        <linearGradient x1="0%" y1="49.9884225%" x2="43.9952637%" y2="49.9884225%" id="linearGradient-3">
            <stop stop-color="#070027" stop-opacity="0" offset="0%"></stop>
            <stop stop-color="#170D27" stop-opacity="0.08" offset="1%"></stop>
            <stop stop-color="#3E2C25" stop-opacity="0.27" offset="3%"></stop>
            <stop stop-color="#634A24" stop-opacity="0.44" offset="5%"></stop>
            <stop stop-color="#826323" stop-opacity="0.6" offset="7%"></stop>
            <stop stop-color="#9D7823" stop-opacity="0.72" offset="10%"></stop>
            <stop stop-color="#B28922" stop-opacity="0.83" offset="13%"></stop>
            <stop stop-color="#C29622" stop-opacity="0.9" offset="17%"></stop>
            <stop stop-color="#CE9F21" stop-opacity="0.96" offset="21%"></stop>
            <stop stop-color="#D4A521" stop-opacity="0.99" offset="27%"></stop>
            <stop stop-color="#D6A621" offset="100%"></stop>
        </linearGradient>
    </defs>
    <g id="icon/logo" stroke="none" stroke-width="1" fill="none" fill-rule="evenodd">
        <g id="Zasób-10" transform="translate(7.000000, 4.000000)" fill-rule="nonzero">
            <g id="Zasób-9">
                <path d="M17.0767347,8.53836735 C17.0767347,3.83020408 13.2465306,0 8.53836735,0 C3.83020408,0 0,3.83020408 0,8.53836735 C0.000282002039,9.92234021 0.336432531,11.2855707 0.979591837,12.5110204 C1.26768783,12.2963698 1.60158128,12.1513567 1.95510204,12.0873469 C1.36823499,10.9964788 1.06110607,9.77707884 1.06122449,8.53836735 C1.06122449,4.4155102 4.4155102,1.06122449 8.53836735,1.06122449 C12.6612245,1.06122449 16.0155102,4.4155102 16.0155102,8.53836735 C16.0155219,9.77494666 15.709261,10.992278 15.1240816,12.0816327 L15.1265306,12.0816327 C15.4797738,12.1429748 15.8141355,12.2848759 16.1036735,12.4963265 C16.7421701,11.2746715 17.075998,9.91681512 17.0767347,8.53836735 Z" id="Path" fill="url(#linearGradient-1)"></path>
                <path d="M8.55020408,5.67346939 C6.94036047,5.67549113 5.63557592,6.97954553 5.63265306,8.58938776 C5.63265306,8.86285714 5.72040816,9.28 5.74163265,9.37673469 L8.55102041,23.6477551 L11.3591837,9.38163265 C11.3808163,9.28326531 11.4693878,8.8644898 11.4693878,8.58938776 C11.4664629,6.97890893 10.1606852,5.67459184 8.55020408,5.67346939 Z M10.3208163,9.15959184 L8.55020408,18.1530612 L6.78081633,9.16612245 L6.77836735,9.15428571 C6.74285714,8.99306122 6.69306122,8.71142857 6.69306122,8.58938776 C6.69306122,7.56371608 7.5245324,6.7322449 8.55020408,6.7322449 C9.57587576,6.7322449 10.4073565,7.56371608 10.4073565,8.58938776 C10.4081633,8.7122449 10.3567347,8.99591837 10.3208163,9.15755102 L10.3208163,9.15959184 Z" id="Shape" fill="#D6A621"></path>
                <path d="M6,18.4840816 C5.29245363,18.4834066 4.71904238,17.9099954 4.71836735,17.202449 L4.71836735,14.3918367 C4.70144678,13.1098598 3.6573947,12.079497 2.37530612,12.079497 C1.09321754,12.079497 0.0491654607,13.1098598 0.032244898,14.3918367 L0.032244898,15.3844898 L1.09346939,15.3844898 L1.09346939,14.3918367 C1.1059435,13.6928135 1.67617161,13.1326704 2.37530612,13.1326704 C3.07444063,13.1326704 3.64466875,13.6928135 3.65714286,14.3918367 L3.65714286,17.202449 C3.6559795,18.1403661 4.21467286,18.9884577 5.07688868,19.3576105 C5.93910451,19.7267633 6.93841511,19.5457223 7.61632653,18.897551 L7.28326531,17.204898 C7.28101614,17.9120313 6.70713694,18.4840852 6,18.4840816 L6,18.4840816 Z" id="Path" fill="url(#linearGradient-2)"></path>
                <path d="M14.7257143,12.0489796 C13.4324427,12.0505539 12.3844314,13.0985651 12.3828571,14.3918367 L12.3828571,17.202449 C12.370383,17.9014722 11.8001549,18.4616153 11.1010204,18.4616153 C10.4018859,18.4616153 9.83165778,17.9014722 9.81918367,17.202449 L9.48571429,18.8979592 C10.1635721,19.5460789 11.1627845,19.7271469 12.0249641,19.3580985 C12.8871438,18.98905 13.4458975,18.1411083 13.444898,17.2032653 L13.444898,14.3918367 C13.444898,13.6840106 14.0187044,13.1102041 14.7265306,13.1102041 C15.4343568,13.1102041 16.0081633,13.6840106 16.0081633,14.3918367 L16.0081633,15.3844898 L17.0693878,15.3844898 L17.0693878,14.3918367 C17.0678126,13.0982468 16.0193047,12.0501041 14.7257143,12.0489796 L14.7257143,12.0489796 Z" id="Path" fill="url(#linearGradient-3)"></path>
            </g>
        </g>
    </g>
</svg>